b *0x08048af9
b *0x08048e39
b *0x08048b66
b *0x0804892b
b *0x0804893b
b *0x08048bde
r
c
c
eflags toggle sign
b *0x8048c1a
123456
c
eflags toggle zero
b *0x8048c94
c
eflags toggle zero
b *0x8048ca6
c
eflags toggle zero


0_VQLGE_TQPTYD_KJTIV_

224067298_VQLGE_TQPTYD_KJTIV_
VTEPIQAVTGF
VTEPI_AVTG_
1160_VTEPI_AVTG_3093_
